PSTAT131 HW6
…
Exercise 1

Read in the data and set things up as in Homework 5:

pokemon <- read_csv("data/pokemon.csv")
pokemon

## # A tibble: 800 x 13
##      `#` Name   `Type 1` `Type 2` Total    HP Attack Defense `Sp. Atk` `Sp. Def`
##    <dbl> <chr>  <chr>    <chr>    <dbl> <dbl>  <dbl>   <dbl>     <dbl>     <dbl>
##  1     1 Bulba~ Grass    Poison     318    45     49      49        65        65
##  2     2 Ivysa~ Grass    Poison     405    60     62      63        80        80
##  3     3 Venus~ Grass    Poison     525    80     82      83       100       100
##  4     3 Venus~ Grass    Poison     625    80    100     123       122       120
##  5     4 Charm~ Fire     <NA>       309    39     52      43        60        50
##  6     5 Charm~ Fire     <NA>       405    58     64      58        80        65
##  7     6 Chari~ Fire     Flying     534    78     84      78       109        85
##  8     6 Chari~ Fire     Dragon     634    78    130     111       130        85
##  9     6 Chari~ Fire     Flying     634    78    104      78       159       115
## 10     7 Squir~ Water    <NA>       314    44     48      65        50        64
## # ... with 790 more rows, and 3 more variables: Speed <dbl>, Generation <dbl>,
## #   Legendary <lgl>
…
#now we Clean Names
pokemon <- pokemon %>% clean_names()

pokemon <- pokemon %>% filter(type_1 == "Bug" | type_1 == "Fire" |
                          type_1 == "Grass" | type_1 == "Normal" |
                          type_1 == "Water" | type_1 == "Psychic")
# Convert type_1, legendary, generation to factors
pokemon$type_1 <- as.factor(pokemon$type_1)
pokemon$generation <- as.factor(pokemon$generation)
pokemon$legendary <- as.factor(pokemon$legendary)
pokemon

## # A tibble: 458 x 13
##    number name      type_1 type_2 total    hp attack defense sp_atk sp_def speed
##     <dbl> <chr>     <fct>  <chr>  <dbl> <dbl>  <dbl>   <dbl>  <dbl>  <dbl> <dbl>
##  1      1 Bulbasaur Grass  Poison   318    45     49      49     65     65    45
##  2      2 Ivysaur   Grass  Poison   405    60     62      63     80     80    60
##  3      3 Venusaur  Grass  Poison   525    80     82      83    100    100    80
##  4      3 Venusaur~ Grass  Poison   625    80    100     123    122    120    80
##  5      4 Charmand~ Fire   <NA>     309    39     52      43     60     50    65
##  6      5 Charmele~ Fire   <NA>     405    58     64      58     80     65    80
##  7      6 Charizard Fire   Flying   534    78     84      78    109     85   100
##  8      6 Charizar~ Fire   Dragon   634    78    130     111    130     85   100
##  9      6 Charizar~ Fire   Flying   634    78    104      78    159    115   100
## 10      7 Squirtle  Water  <NA>     314    44     48      65     50     64    43
## # ... with 448 more rows, and 2 more variables: generation <fct>,
## #   legendary <fct>
…
pokemon_rf_spec <- rand_forest(mtry=tune(), trees=tune(), min_n=tune()) %>% 
  set_engine("randomForest", importance = TRUE) %>% 
  set_mode("classification")

pokemon_rf_workflow <- workflow() %>% 
  add_recipe(pokemon_recipe) %>% 
  add_model(pokemon_rf_spec)

regular_grid <- grid_regular(mtry(range = c(1,8)), trees(range = c(10,1000)), min_n(range = c(1, 10)), levels = 8)
regular_grid

## # A tibble: 512 x 3
##     mtry trees min_n
##    <int> <int> <int>
##  1     1    10     1
##  2     2    10     1
##  3     3    10     1
##  4     4    10     1
##  5     5    10     1
##  6     6    10     1
##  7     7    10     1
##  8     8    10     1
##  9     1   151     1
## 10     2   151     1
## # ... with 502 more rows
…
In the autoplot, we clearly got the smaller node size affect
performance. When # of trees above 100, it does not seem to affect
performance. And those not many difference in roc auc, so 3 or 4
randomly selected predictors seems perform slightly better.

Exercise 7

What is the roc_auc of your best-performing random
forest model on the folds? Hint: Use collect_metrics()
and arrange().

# the top results are best parameters
collect_metrics(tune_res_rf) %>% arrange(desc(mean))

## # A tibble: 512 x 9
##     mtry trees min_n .metric .estimator  mean     n std_err .config             
##    <int> <int> <int> <chr>   <chr>      <dbl> <int>   <dbl> <chr>               
##  1     6   292    10 roc_auc hand_till  0.722     5  0.0251 Preprocessor1_Model~
##  2     7   575    10 roc_auc hand_till  0.721     5  0.0261 Preprocessor1_Model~
##  3     5  1000    10 roc_auc hand_till  0.720     5  0.0255 Preprocessor1_Model~
##  4     6  1000    10 roc_auc hand_till  0.720     5  0.0242 Preprocessor1_Model~
##  5     6   434    10 roc_auc hand_till  0.719     5  0.0268 Preprocessor1_Model~
##  6     5  1000     8 roc_auc hand_till  0.719     5  0.0235 Preprocessor1_Model~
##  7     7   858     8 roc_auc hand_till  0.718     5  0.0232 Preprocessor1_Model~
##  8     8   858    10 roc_auc hand_till  0.718     5  0.0242 Preprocessor1_Model~
##  9     6   434     8 roc_auc hand_till  0.718     5  0.0232 Preprocessor1_Model~
## 10     5   575    10 roc_auc hand_till  0.718     5  0.0244 Preprocessor1_Model~
## # ... with 502 more rows
…
